{
    "providers": [
        {
            "type": "ttf",
            "file": "pokemoncobbled:notosans_regular.ttf",
            "shift": [0, 0],
            "size": 13.0,
            "oversample": 8.0
        },
        {
            "type": "legacy_unicode",
            "sizes": "minecraft:font/glyph_sizes.bin",
            "template": "minecraft:font/unicode_page_%s.png"
        }
    ]
}