{
  "required": true,
  "package": "com.cablemc.pokemoncobbled.common.mixin",
  "compatibilityLevel": "JAVA_8",
  "refmap": "pokemoncobbled-common-refmap.json",
  "minVersion": "0.8",
  "client": [
    "LayerDefinitionsMixin",
    "KeyboardHandlerMixin",
    "KeyMappingMixin",
    "EntityRenderDispatcherMixin"
  ],
  "mixins": [
    "PlayerMixin"
  ]
}